<?xml version="1.0"?>
<robot xmlns:xacro="http://www.ros.org/wiki/xacro" name="camera_box">

    <xacro:include filename="$(find hanoi_tower_kuka_model)/urdf/camera.plugins.xacro" />
    <xacro:property name="camera_size" value="0.05"/>
    <xacro:property name="camera_origin_x" value="0.1"/>
    <xacro:property name="camera_origin_y" value="0"/>
    <xacro:property name="camera_origin_z" value="0.025"/>

    <xacro:macro name="default_inertial" params="mass">
        <inertial>
            <mass value="${mass}"/>
            <inertia ixx="1.0" ixy="0.0" ixz="0.0" iyy="1.0" iyz="0.0" izz="1.0"/>
        </inertial>
    </xacro:macro>

    <link name="world"/>

    <gazebo reference="world">
        <static>true</static>
    </gazebo>
    <joint name="camera_joint" type="fixed">
        <origin xyz="${camera_origin_x} ${camera_origin_y} ${camera_origin_z}" rpy="0 0 0"/>
        <parent link="world"/>
        <child link="camera_link"/>
    </joint>

    <!--Camera-->
    <link name="camera_link">
        <visual>
            <geometry>
                <box size="${camera_size} ${camera_size} ${camera_size}"/>
            </geometry>
            <material name="blue"/>
        </visual>
        <collision>
            <geometry>
                <box size="${camera_size} ${camera_size} ${camera_size}"/>
            </geometry>
        </collision>
        <xacro:default_inertial mass="0.02"/>
    </link>
    <gazebo reference="camera_link">
        <material>Gazebo/Blue</material>
    </gazebo>
</robot>