<?xml version="1.0"?>
<robot name="token_d500"
    xmlns:xacro="http://www.ros.org/wiki/xacro">

    <xacro:include filename="$(find hanoi_tower_kuka_model)/urdf/materials.xacro" />
    <!--Import the hanoi_token macro -->
    <xacro:include filename="$(find hanoi_tower_kuka_model)/urdf/hanoi_token.xacro"/>

    <xacro:hanoi_token name="500" diameter="0.05" hole_diameter="0.02" height="0.017" color="Green" mass="0.45">
    </xacro:hanoi_token>

</robot>
