<?xml version="1.0"?>
<robot name="token_d200"
    xmlns:xacro="http://www.ros.org/wiki/xacro">

    <xacro:include filename="$(find hanoi_tower_kuka_model)/urdf/materials.xacro" />
    <!--Import the hanoi_token macro -->
    <xacro:include filename="$(find hanoi_tower_kuka_model)/urdf/hanoi_token.xacro"/>

    <xacro:hanoi_token name="200" diameter="0.0200" hole_diameter="0.012" height="0.017" color="Purple" mass="0.45">
    </xacro:hanoi_token>

</robot>
